1 10 20
100 200 125
201 210 89
900 1000 174
1 2 2
1 3 8
1 4 8
1 5 8
1 6 9
1 7 17
1 8 17
1 9 20
2 4 8
2 5 8
2 6 9
3 8 17
3 10 20
4 15 20
5 10 20
1 1 1
2 2 2
3 3 8
4 4 3
15 20 21
16 20 21
7 10 20
7 20 21
8 16 20
8 40 112
10 11 15
10 100 119
10 150 122
10 300 128
10 400 144
12 15 18
12 24 21
12 30 112
12 50 112
12 100 119
12 150 122
12 160 122
12 200 125
12 400 144
12 450 144
20 24 16
20 200 125
20 1000 179
20 2000 182
40 50 110
50 100 119
50 150 122
50 2000 182
50 10000 262
50 20000 279
50 100000 351
50 900000 525
50 999999 525
55 60 113
60 65 108
60 100 119
60 70 108
60 1000 179
80 100 119
80 150 122
80 250 128
80 300 128
80 400 144
80 500 144
80 600 144
80 700 145
80 850 171
80 80000 351
80 800000 470
90 99 119
90 101 119
90 200 125
92 300 128
92 400 144
92 600 144
92 568 144
93 678 145
95 9349 262
99 49923 324
99 42390 324
99 12290 268
99 100000 351
99 999999 525
100 101 26
100 105 88
100 300 128
100 400 144
100 500 144
100 10000 262
100 10234 262
100 23101 279
100 2301 183
100 99000 351
101 1022 179
120 123 96
120 133 122
120 144 122
120 1494 182
120 19000 279
150 200 125
150 250 128
150 25000 282
150 26000 282
150 29000 308
150 30000 308
150 250000 443
200 200000 383
200 200020 383
205 200100 383
206 207000 383
220 101020 351
220 101010 351
225 101010 351
226 227 14
226 230 35
226 240 128
226 300 128
226 400 144
226 500 144
226 1000 179
226 1050 179
226 1060 179
300 350 144
300 450 144
300 460 144
300 45600 324
300 9999 262
300 10000 262
400 500 142
400 5000 238
400 50000 324
400 50005 324
450 40023 324
450 40320 324
450 4023 238
450 1235 182
450 2220 182
500 600 137
500 601 137
500 602 137
500 603 137
500 604 137
500 605 137
500 606 137
500 607 137
500 608 137
500 609 137
500 610 137
600 700 145
600 715 171
600 730 171
600 745 171
600 760 171
600 775 171
600 790 171
700 1007 179
700 1014 179
700 1021 179
700 1028 179
700 1035 179
700 1042 179
700 1049 179
700 1056 179
700 1063 179
700 1070 179
700 1077 179
700 1084 179
700 1091 179
700 1098 179
850 854 60
850 954 179
850 1054 179
850 2054 182
850 3054 217
850 4054 238
850 5054 238
850 10054 262
850 20054 279
850 30054 308
850 40054 324
850 50054 324
850 100054 351
900 999 174
900 1111 174
900 2222 182
900 3333 217
900 4444 238
900 5555 238
900 6666 262
900 7777 262
900 8888 262
900 9999 262
900 11111 268
900 22222 279
900 33333 308
900 44444 324
900 55555 340
900 66666 340
900 77777 351